{
  "token": "AZERTY",
  "contacts": [
    {
      "id": 1,
      "name": "John",
      "email": "john@doe.com",
      "requestDate": "2017-14-02",
      "validationDate": null,
      "request": false
    },
    {
      "id": 2,
      "name": "Jane",
      "email": "jane@doe.com",
      "requestDate": "2017-14-02",
      "validationDate": null,
      "request": false
    },
    {
      "id": 3,
      "name": "Jack",
      "email": "jack@doe.com",
      "requestDate": "2017-14-02",
      "validationDate": null,
      "request": false
    },
    {
      "id": 4,
      "name": "Jill",
      "email": "jill@doe.com",
      "requestDate": "2017-14-02",
      "validationDate": null,
      "request": false
    }
  ]
}